{
  "id": "7b6a5206-e3a7-4f9f-a2bc-462253cf3b8a",
  "name": "View",
  "modelName": "View",
  "createdAt": "2020-08-28T12:10:49.013Z",
  "updatedAt": "2020-08-28T12:10:49.013Z",
  "deletedAt": null,
  "ModelFields": [
    {
      "id": "88a16c50-1e72-4392-bae8-ab996a6c6e04",
      "targetModel": "ViewRowAction",
      "targetModelAlias": "ViewRowAction",
      "default": null,
      "name": "ViewRowActions",
      "selectOptions": null,
      "length": null,
      "modelFieldType": null,
      "type": "hasMany",
      "createdAt": "2020-08-28T12:10:49.037Z",
      "updatedAt": "2020-08-28T12:10:49.037Z",
      "deletedAt": null,
      "ModelId": "7b6a5206-e3a7-4f9f-a2bc-462253cf3b8a"
    },
    {
      "id": "7d131087-a605-4442-a46a-1283fd7206eb",
      "targetModel": "ViewAction",
      "targetModelAlias": "ViewAction",
      "default": null,
      "name": "ViewActions",
      "selectOptions": null,
      "length": null,
      "modelFieldType": null,
      "type": "hasMany",
      "createdAt": "2020-08-28T12:10:49.037Z",
      "updatedAt": "2020-08-28T12:10:49.037Z",
      "deletedAt": null,
      "ModelId": "7b6a5206-e3a7-4f9f-a2bc-462253cf3b8a"
    },
    {
      "id": "da88ec8e-a5a7-4f0a-844b-abfc61ab42d4",
      "targetModel": null,
      "targetModelAlias": null,
      "default": null,
      "name": "showOnMenu",
      "selectOptions": null,
      "length": null,
      "modelFieldType": "DataTypes.BOOLEAN",
      "type": "boolean",
      "createdAt": "2020-08-28T12:10:49.037Z",
      "updatedAt": "2020-08-28T12:10:49.037Z",
      "deletedAt": null,
      "ModelId": "7b6a5206-e3a7-4f9f-a2bc-462253cf3b8a"
    },
    {
      "id": "3186c2a0-c517-4743-adb9-6f561e5cc6ac",
      "targetModel": null,
      "targetModelAlias": null,
      "default": null,
      "name": "labelKey",
      "selectOptions": null,
      "length": 255,
      "modelFieldType": "DataTypes.STRING",
      "type": "string",
      "createdAt": "2020-08-28T12:10:49.037Z",
      "updatedAt": "2020-08-28T12:10:49.037Z",
      "deletedAt": null,
      "ModelId": "7b6a5206-e3a7-4f9f-a2bc-462253cf3b8a"
    },
    {
      "id": "d3ba7d04-f9d3-466f-90d7-9ddc772793c5",
      "targetModel": "ViewField",
      "targetModelAlias": "ViewField",
      "default": null,
      "name": "ViewFields",
      "selectOptions": null,
      "length": null,
      "modelFieldType": null,
      "type": "hasMany",
      "createdAt": "2020-08-28T12:10:49.037Z",
      "updatedAt": "2020-08-28T12:10:49.037Z",
      "deletedAt": null,
      "ModelId": "7b6a5206-e3a7-4f9f-a2bc-462253cf3b8a"
    },
    {
      "id": "c1304049-4822-4490-af06-043cb6169c74",
      "targetModel": null,
      "targetModelAlias": null,
      "default": null,
      "name": "filters",
      "selectOptions": null,
      "length": null,
      "modelFieldType": "DataTypes.JSON",
      "type": "json",
      "createdAt": "2020-08-28T12:10:49.037Z",
      "updatedAt": "2020-08-28T12:10:49.037Z",
      "deletedAt": null,
      "ModelId": "7b6a5206-e3a7-4f9f-a2bc-462253cf3b8a"
    },
    {
      "id": "2d462491-90d5-4832-b7c7-87ca27ca1c76",
      "targetModel": null,
      "targetModelAlias": null,
      "default": null,
      "name": "key",
      "selectOptions": null,
      "length": 255,
      "modelFieldType": "DataTypes.STRING",
      "type": "string",
      "createdAt": "2020-08-28T12:10:49.037Z",
      "updatedAt": "2020-08-28T12:10:49.037Z",
      "deletedAt": null,
      "ModelId": "7b6a5206-e3a7-4f9f-a2bc-462253cf3b8a"
    },
    {
      "id": "a79c9711-4efe-437e-8f4f-94c79d153f60",
      "targetModel": null,
      "targetModelAlias": null,
      "default": null,
      "name": "type",
      "selectOptions": null,
      "length": 255,
      "modelFieldType": "DataTypes.STRING",
      "type": "string",
      "createdAt": "2020-08-28T12:10:49.037Z",
      "updatedAt": "2020-08-28T12:10:49.037Z",
      "deletedAt": null,
      "ModelId": "7b6a5206-e3a7-4f9f-a2bc-462253cf3b8a"
    },
    {
      "id": "24e0b1a4-a584-44c2-8d38-59381c8777f9",
      "targetModel": null,
      "targetModelAlias": null,
      "default": null,
      "name": "include",
      "selectOptions": null,
      "length": null,
      "modelFieldType": "DataTypes.JSON",
      "type": "json",
      "createdAt": "2020-08-28T12:10:49.037Z",
      "updatedAt": "2020-08-28T12:10:49.037Z",
      "deletedAt": null,
      "ModelId": "7b6a5206-e3a7-4f9f-a2bc-462253cf3b8a"
    },
    {
      "id": "c6e8fe39-fc05-4aac-8ed6-d9227e8f7169",
      "targetModel": "Model",
      "targetModelAlias": "Model",
      "default": null,
      "name": "ModelId",
      "selectOptions": null,
      "length": null,
      "modelFieldType": null,
      "type": "belongsTo",
      "createdAt": "2020-08-28T12:10:49.037Z",
      "updatedAt": "2020-08-28T12:10:49.037Z",
      "deletedAt": null,
      "ModelId": "7b6a5206-e3a7-4f9f-a2bc-462253cf3b8a"
    },
    {
      "id": "1afcf137-9055-493b-90e2-526121ba3d96",
      "targetModel": null,
      "targetModelAlias": null,
      "default": null,
      "name": "slug",
      "selectOptions": null,
      "length": 255,
      "modelFieldType": "DataTypes.STRING",
      "type": "string",
      "createdAt": "2020-08-28T12:10:49.037Z",
      "updatedAt": "2020-08-28T12:10:49.037Z",
      "deletedAt": null,
      "ModelId": "7b6a5206-e3a7-4f9f-a2bc-462253cf3b8a"
    }
  ],
  "Views": [
    {
      "id": "d16fb811-afe8-4d56-a007-274a9bd21445",
      "filters": null,
      "key": "list-views",
      "type": "ListView",
      "showOnMenu": true,
      "labelKey": "views",
      "include": ["ViewFields", "Model"],
      "slug": "/views",
      "createdAt": "2020-08-28T12:10:49.088Z",
      "updatedAt": "2020-08-28T12:10:49.088Z",
      "deletedAt": null,
      "ModelId": "7b6a5206-e3a7-4f9f-a2bc-462253cf3b8a",
      "ViewFields": [
        {
          "id": "ae3a1fc4-9a4c-47e4-87b3-37850359be26",
          "labelKey": "labelKey",
          "class": null,
          "mask": null,
          "format": null,
          "valueColumn": null,
          "descriptionColumn": null,
          "findType": null,
          "required": null,
          "canUpdate": null,
          "canOrderBy": null,
          "breakAfter": null,
          "order": "2",
          "filters": null,
          "include": null,
          "createdAt": "2020-08-28T12:10:49.156Z",
          "updatedAt": "2020-08-28T12:10:49.156Z",
          "deletedAt": null,
          "ModelFieldId": "3186c2a0-c517-4743-adb9-6f561e5cc6ac",
          "ViewId": "d16fb811-afe8-4d56-a007-274a9bd21445",
          "ChildViewId": null
        },
        {
          "id": "bff21a2b-1dc3-4dc9-a907-037b3cd08baf",
          "labelKey": "showOnMenu",
          "class": null,
          "mask": null,
          "format": null,
          "valueColumn": null,
          "descriptionColumn": null,
          "findType": null,
          "required": null,
          "canUpdate": null,
          "canOrderBy": null,
          "breakAfter": null,
          "order": "5",
          "filters": null,
          "include": null,
          "createdAt": "2020-08-28T12:10:49.156Z",
          "updatedAt": "2020-08-28T12:10:49.156Z",
          "deletedAt": null,
          "ModelFieldId": "da88ec8e-a5a7-4f0a-844b-abfc61ab42d4",
          "ViewId": "d16fb811-afe8-4d56-a007-274a9bd21445",
          "ChildViewId": null
        },
        {
          "id": "9bcea515-9891-42da-8a53-9d21bd01a385",
          "labelKey": "slug",
          "class": null,
          "mask": null,
          "format": null,
          "valueColumn": null,
          "descriptionColumn": null,
          "findType": null,
          "required": null,
          "canUpdate": null,
          "canOrderBy": null,
          "breakAfter": null,
          "order": "4",
          "filters": null,
          "include": null,
          "createdAt": "2020-08-28T12:10:49.156Z",
          "updatedAt": "2020-08-28T12:10:49.156Z",
          "deletedAt": null,
          "ModelFieldId": "1afcf137-9055-493b-90e2-526121ba3d96",
          "ViewId": "d16fb811-afe8-4d56-a007-274a9bd21445",
          "ChildViewId": null
        },
        {
          "id": "f9b13b28-41cc-492c-94b4-97630ad3b581",
          "labelKey": "type",
          "class": null,
          "mask": null,
          "format": null,
          "valueColumn": null,
          "descriptionColumn": null,
          "findType": null,
          "required": null,
          "canUpdate": null,
          "canOrderBy": null,
          "breakAfter": null,
          "order": "3",
          "filters": null,
          "include": null,
          "createdAt": "2020-08-28T12:10:49.156Z",
          "updatedAt": "2020-08-28T12:10:49.156Z",
          "deletedAt": null,
          "ModelFieldId": "a79c9711-4efe-437e-8f4f-94c79d153f60",
          "ViewId": "d16fb811-afe8-4d56-a007-274a9bd21445",
          "ChildViewId": null
        },
        {
          "id": "1ce522ca-9789-4321-9038-4ccdf4c1462b",
          "labelKey": "key",
          "class": null,
          "mask": null,
          "format": null,
          "valueColumn": null,
          "descriptionColumn": null,
          "findType": null,
          "required": null,
          "canUpdate": null,
          "canOrderBy": null,
          "breakAfter": null,
          "order": "1",
          "filters": null,
          "include": null,
          "createdAt": "2020-08-28T12:10:49.156Z",
          "updatedAt": "2020-08-28T12:10:49.156Z",
          "deletedAt": null,
          "ModelFieldId": "2d462491-90d5-4832-b7c7-87ca27ca1c76",
          "ViewId": "d16fb811-afe8-4d56-a007-274a9bd21445",
          "ChildViewId": null
        },
        {
          "id": "4d9bba9a-4276-4def-827a-3f8f3f98bcd0",
          "labelKey": "ModelId",
          "class": null,
          "mask": null,
          "format": null,
          "valueColumn": null,
          "descriptionColumn": null,
          "findType": null,
          "required": null,
          "canUpdate": null,
          "canOrderBy": null,
          "breakAfter": null,
          "order": "6",
          "filters": null,
          "include": null,
          "createdAt": "2020-08-28T12:10:49.156Z",
          "updatedAt": "2020-08-28T12:10:49.156Z",
          "deletedAt": null,
          "ModelFieldId": "c6e8fe39-fc05-4aac-8ed6-d9227e8f7169",
          "ViewId": "d16fb811-afe8-4d56-a007-274a9bd21445",
          "ChildViewId": null
        }
      ],
      "ViewActions": [
        {
          "id": "97a0fe14-0da3-430e-902b-3736adf5112a",
          "class": "is-link",
          "labelKey": "create",
          "order": "1",
          "params": null,
          "slug": "/views_form",
          "position": "top right",
          "type": "navigation",
          "createdAt": "2020-08-28T12:10:49.100Z",
          "updatedAt": "2020-08-28T12:10:49.100Z",
          "deletedAt": null,
          "ViewId": "d16fb811-afe8-4d56-a007-274a9bd21445"
        }
      ],
      "ViewRowActions": [
        {
          "id": "d2f0b07e-3478-445c-bd42-b9565b5a90f5",
          "type": "navigation",
          "slug": "/views_form/:id:",
          "position": null,
          "order": "1",
          "labelKey": "edit",
          "class": "is-link",
          "params": null,
          "createdAt": "2020-08-28T12:10:49.111Z",
          "updatedAt": "2020-08-28T12:10:49.111Z",
          "deletedAt": null,
          "ViewId": "d16fb811-afe8-4d56-a007-274a9bd21445"
        },
        {
          "id": "9519eda1-0567-4727-a5be-be0182abdd54",
          "type": "delete",
          "slug": null,
          "position": null,
          "order": "2",
          "labelKey": "remove",
          "class": "has-text-danger",
          "params": {
            "id": ":id:"
          },
          "createdAt": "2020-08-28T12:10:49.111Z",
          "updatedAt": "2020-08-28T12:10:49.111Z",
          "deletedAt": null,
          "ViewId": "d16fb811-afe8-4d56-a007-274a9bd21445"
        }
      ]
    },
    {
      "id": "637e72f8-9426-4796-bfa1-b864faec1aed",
      "filters": null,
      "key": "form-views",
      "type": "FormView",
      "showOnMenu": false,
      "labelKey": "views",
      "include": ["ViewFields", "Model", "ViewActions", "ViewRowActions"],
      "slug": "/views_form",
      "createdAt": "2020-08-28T12:10:49.088Z",
      "updatedAt": "2020-08-28T12:10:49.088Z",
      "deletedAt": null,
      "ModelId": "7b6a5206-e3a7-4f9f-a2bc-462253cf3b8a",
      "ViewFields": [
        {
          "id": "0030d286-517b-444b-baba-ed458b9b5003",
          "labelKey": "key",
          "class": "is-2",
          "mask": null,
          "format": null,
          "valueColumn": null,
          "descriptionColumn": null,
          "findType": null,
          "required": null,
          "canUpdate": null,
          "canOrderBy": null,
          "breakAfter": null,
          "order": "1",
          "filters": null,
          "include": null,
          "createdAt": "2020-08-28T12:10:49.168Z",
          "updatedAt": "2020-08-28T12:10:49.168Z",
          "deletedAt": null,
          "ModelFieldId": "2d462491-90d5-4832-b7c7-87ca27ca1c76",
          "ViewId": "637e72f8-9426-4796-bfa1-b864faec1aed",
          "ChildViewId": null
        },
        {
          "id": "ab18d6b5-471f-46db-8829-47d3be34dd87",
          "labelKey": "type",
          "class": "is-2",
          "mask": null,
          "format": null,
          "valueColumn": null,
          "descriptionColumn": null,
          "findType": null,
          "required": null,
          "canUpdate": null,
          "canOrderBy": null,
          "breakAfter": null,
          "order": "3",
          "filters": null,
          "include": null,
          "createdAt": "2020-08-28T12:10:49.168Z",
          "updatedAt": "2020-08-28T12:10:49.168Z",
          "deletedAt": null,
          "ModelFieldId": "a79c9711-4efe-437e-8f4f-94c79d153f60",
          "ViewId": "637e72f8-9426-4796-bfa1-b864faec1aed",
          "ChildViewId": null
        },
        {
          "id": "68b0a6b5-bade-4859-946f-e26d808cfb77",
          "labelKey": "filters",
          "class": "is-6",
          "mask": null,
          "format": null,
          "valueColumn": null,
          "descriptionColumn": null,
          "findType": null,
          "required": null,
          "canUpdate": null,
          "canOrderBy": null,
          "breakAfter": null,
          "order": "6",
          "filters": null,
          "include": null,
          "createdAt": "2020-08-28T12:10:49.168Z",
          "updatedAt": "2020-08-28T12:10:49.168Z",
          "deletedAt": null,
          "ModelFieldId": "c1304049-4822-4490-af06-043cb6169c74",
          "ViewId": "637e72f8-9426-4796-bfa1-b864faec1aed",
          "ChildViewId": null
        },
        {
          "id": "3cc4399f-db3a-45d5-a97b-2a4b4cd6f638",
          "labelKey": "slug",
          "class": "is-2",
          "mask": null,
          "format": null,
          "valueColumn": null,
          "descriptionColumn": null,
          "findType": null,
          "required": null,
          "canUpdate": null,
          "canOrderBy": null,
          "breakAfter": null,
          "order": "4",
          "filters": null,
          "include": null,
          "createdAt": "2020-08-28T12:10:49.168Z",
          "updatedAt": "2020-08-28T12:10:49.168Z",
          "deletedAt": null,
          "ModelFieldId": "1afcf137-9055-493b-90e2-526121ba3d96",
          "ViewId": "637e72f8-9426-4796-bfa1-b864faec1aed",
          "ChildViewId": null
        },
        {
          "id": "bc38660c-046d-42cb-9f09-fdeb86a89e70",
          "labelKey": "include",
          "class": "is-6",
          "mask": null,
          "format": null,
          "valueColumn": null,
          "descriptionColumn": null,
          "findType": null,
          "required": null,
          "canUpdate": null,
          "canOrderBy": null,
          "breakAfter": null,
          "order": "7",
          "filters": null,
          "include": null,
          "createdAt": "2020-08-28T12:10:49.168Z",
          "updatedAt": "2020-08-28T12:10:49.168Z",
          "deletedAt": null,
          "ModelFieldId": "24e0b1a4-a584-44c2-8d38-59381c8777f9",
          "ViewId": "637e72f8-9426-4796-bfa1-b864faec1aed",
          "ChildViewId": null
        },
        {
          "id": "c6ee4287-a127-4ffb-904d-88583b0b3f21",
          "labelKey": "ModelId",
          "class": "is-2",
          "mask": null,
          "format": null,
          "valueColumn": null,
          "descriptionColumn": null,
          "findType": null,
          "required": null,
          "canUpdate": null,
          "canOrderBy": null,
          "breakAfter": null,
          "order": "0",
          "filters": null,
          "include": null,
          "createdAt": "2020-08-28T12:10:49.168Z",
          "updatedAt": "2020-08-28T12:10:49.168Z",
          "deletedAt": null,
          "ModelFieldId": "c6e8fe39-fc05-4aac-8ed6-d9227e8f7169",
          "ViewId": "637e72f8-9426-4796-bfa1-b864faec1aed",
          "ChildViewId": null
        },
        {
          "id": "78b6879f-342e-4f59-a4cb-0354553489cb",
          "labelKey": "labelKey",
          "class": "is-2",
          "mask": null,
          "format": null,
          "valueColumn": null,
          "descriptionColumn": null,
          "findType": null,
          "required": null,
          "canUpdate": null,
          "canOrderBy": null,
          "breakAfter": null,
          "order": "2",
          "filters": null,
          "include": null,
          "createdAt": "2020-08-28T12:10:49.168Z",
          "updatedAt": "2020-08-28T12:10:49.168Z",
          "deletedAt": null,
          "ModelFieldId": "3186c2a0-c517-4743-adb9-6f561e5cc6ac",
          "ViewId": "637e72f8-9426-4796-bfa1-b864faec1aed",
          "ChildViewId": null
        },
        {
          "id": "73731dbe-3b94-472f-92ef-4424d4662c04",
          "labelKey": "showOnMenu",
          "class": "is-2",
          "mask": null,
          "format": null,
          "valueColumn": null,
          "descriptionColumn": null,
          "findType": null,
          "required": null,
          "canUpdate": null,
          "canOrderBy": null,
          "breakAfter": true,
          "order": "5",
          "filters": null,
          "include": null,
          "createdAt": "2020-08-28T12:10:49.168Z",
          "updatedAt": "2020-08-28T12:10:49.168Z",
          "deletedAt": null,
          "ModelFieldId": "da88ec8e-a5a7-4f0a-844b-abfc61ab42d4",
          "ViewId": "637e72f8-9426-4796-bfa1-b864faec1aed",
          "ChildViewId": null
        },
        {
          "id": "f52663f2-9a8e-4d92-89fc-9270a8d19ab9",
          "labelKey": "ViewRowActions",
          "class": "is-full",
          "mask": null,
          "format": null,
          "valueColumn": null,
          "descriptionColumn": null,
          "findType": null,
          "required": null,
          "canUpdate": null,
          "canOrderBy": null,
          "breakAfter": null,
          "order": "999",
          "filters": null,
          "include": null,
          "createdAt": "2020-08-28T12:10:49.168Z",
          "updatedAt": "2020-08-28T12:10:49.168Z",
          "deletedAt": null,
          "ModelFieldId": "88a16c50-1e72-4392-bae8-ab996a6c6e04",
          "ViewId": "637e72f8-9426-4796-bfa1-b864faec1aed",
          "ChildViewId": "809ccac3-9af6-48ce-a4e7-81cdf410a1e9"
        },
        {
          "id": "3be63c05-bbd0-44ad-9298-f1fabfc64e4c",
          "labelKey": "ViewActions",
          "class": "is-full",
          "mask": null,
          "format": null,
          "valueColumn": null,
          "descriptionColumn": null,
          "findType": null,
          "required": null,
          "canUpdate": null,
          "canOrderBy": null,
          "breakAfter": null,
          "order": "998",
          "filters": null,
          "include": null,
          "createdAt": "2020-08-28T12:10:49.168Z",
          "updatedAt": "2020-08-28T12:10:49.168Z",
          "deletedAt": null,
          "ModelFieldId": "7d131087-a605-4442-a46a-1283fd7206eb",
          "ViewId": "637e72f8-9426-4796-bfa1-b864faec1aed",
          "ChildViewId": "82dd0852-c5f6-4276-ac3a-e7d69f141cc1"
        },
        {
          "id": "8d2ef72f-f751-461f-beb6-2bc1796db871",
          "labelKey": "ViewFields",
          "class": "is-full",
          "mask": null,
          "format": null,
          "valueColumn": null,
          "descriptionColumn": null,
          "findType": null,
          "required": null,
          "canUpdate": null,
          "canOrderBy": null,
          "breakAfter": null,
          "order": "997",
          "filters": null,
          "include": null,
          "createdAt": "2020-08-28T12:10:49.168Z",
          "updatedAt": "2020-08-28T12:10:49.168Z",
          "deletedAt": null,
          "ModelFieldId": "d3ba7d04-f9d3-466f-90d7-9ddc772793c5",
          "ViewId": "637e72f8-9426-4796-bfa1-b864faec1aed",
          "ChildViewId": "8934a4e8-58f9-44ca-85ac-97843f634929"
        }
      ],
      "ViewActions": [
        {
          "id": "10a03aa3-cd62-44c2-86b2-896847cd90f2",
          "class": "is-link",
          "labelKey": "save",
          "order": "1",
          "params": null,
          "slug": "/views",
          "position": "form end",
          "type": "submit",
          "createdAt": "2020-08-28T12:10:49.100Z",
          "updatedAt": "2020-08-28T12:10:49.100Z",
          "deletedAt": null,
          "ViewId": "637e72f8-9426-4796-bfa1-b864faec1aed"
        },
        {
          "id": "44b5330a-706a-4f8e-a799-3951a6e41c2c",
          "class": "is-link is-light",
          "labelKey": "back",
          "order": "1",
          "params": null,
          "slug": "/views",
          "position": "top left",
          "type": "navigation",
          "createdAt": "2020-08-28T12:10:49.100Z",
          "updatedAt": "2020-08-28T12:10:49.100Z",
          "deletedAt": null,
          "ViewId": "637e72f8-9426-4796-bfa1-b864faec1aed"
        }
      ],
      "ViewRowActions": []
    }
  ]
}
